R4ds-exercises-2 - SR-C
…
daily <- group_by(flights, year, month, day)
(per_day   <- summarise(daily, flights = n()))
#> # A tibble: 365 x 4
#> # Groups:   year, month [?]
#>    year month   day flights
#>   <int> <int> <int>   <int>
#> 1  2013     1     1     842
#> 2  2013     1     2     943
#> 3  2013     1     3     914
#> 4  2013     1     4     915
#> 5  2013     1     5     720
#> 6  2013     1     6     832
#> # … with 359 more rows
(per_month <- summarise(per_day, flights = sum(flights)))
#> # A tibble: 12 x 3
#> # Groups:   year [?]
#>    year month flights
#>   <int> <int>   <int>
#> 1  2013     1   27004
#> 2  2013     2   24951
#> 3  2013     3   28834
#> 4  2013     4   28330
#> 5  2013     5   28796
#> 6  2013     6   28243
#> # … with 6 more rows
…
